{
    "detection": {
        "sliding_window": {
            "step_size": [4, 4]
        },
        "pyramid": {
            "downscale": 1.01
        },
        "nms": {
            "threshold": 0.1
        }
    }
}